{
	"ulid": "01GY17J5EKVYYD3147AKF12BWS",
	"minTime": 1681495200000,
	"maxTime": 1681502400000,
	"stats": {
		"numSamples": 201072,
		"numSeries": 842,
		"numChunks": 2125
	},
	"compaction": {
		"level": 1,
		"sources": [
			"01GY17J5EKVYYD3147AKF12BWS"
		]
	},
	"version": 1
}